{
    "KPlugin": {
        "Authors": [
            {
                "Email": "plasma-devel@kde.org",
                "Name": "Plasma Team",
                "Name[ar]": "فريق بلازما",
                "Name[az]": "Plasma komandası",
                "Name[ca]": "L'equip del Plasma",
                "Name[en_GB]": "Plasma Team",
                "Name[es]": "Equipo de Plasma",
                "Name[fr]": "Équipe de Plasma",
                "Name[hu]": "A Plasma fejlesztői",
                "Name[ia]": "Equipa de Plasma",
                "Name[it]": "La squadra di Plasma",
                "Name[lt]": "Plasma komanda",
                "Name[nl]": "Team van Plasma",
                "Name[nn]": "Utviklingslaget for Plasma",
                "Name[pl]": "Zespół Plazmy",
                "Name[pt_BR]": "Temas do Plasma",
                "Name[ru]": "Команда разработчиков Plasma",
                "Name[sl]": "Ekipa Plasme",
                "Name[sv]": "Plasma-gruppen",
                "Name[ta]": "பிளாஸ்மா குழு",
                "Name[uk]": "Команда розробників Плазми",
                "Name[vi]": "Đội Plasma",
                "Name[x-test]": "xxPlasma Teamxx",
                "Name[zh_CN]": "Plasma 开发团队"
            }
        ],
        "Description": "Find applications, control panels and services",
        "Description[ar]": "اعثر على التطبيقات، لوحات التحكّم والخدمات",
        "Description[az]": "Tətbiqlərin tapılması, panellərə və xidmətlərə nəzarət",
        "Description[ca]": "Cerca aplicacions, plafons de control i serveis",
        "Description[en_GB]": "Find applications, control panels and services",
        "Description[es]": "Encontrar aplicaciones, paneles de control y servicios",
        "Description[fr]": "Trouver des applications, des tableaux de bord et des services",
        "Description[hu]": "Alkalmazások, vezérlőpanelek és szolgáltatások keresése",
        "Description[ia]": "Trova applicationes, pannellos de controlo e servicios",
        "Description[it]": "Trova applicazioni, pannelli di controllo e servizi",
        "Description[lt]": "Rasti programas, valdyti skydelius ir tarnybas",
        "Description[nl]": "Zoek naar programma's, configuratiemodules en diensten",
        "Description[nn]": "Finn program, kontrollpanel og tenester",
        "Description[pl]": "Wyszukuje programy, panele sterowania i usługi",
        "Description[pt_BR]": "Localiza aplicativos, painéis de controle e serviços",
        "Description[ru]": "Поиск приложений и служб",
        "Description[sl]": "Najdite programe, nadzorne plošče in storitve",
        "Description[sv]": "Sök efter program, kontrollpaneler och tjänster",
        "Description[ta]": "செயலிகள், கட்டுப்பாடு பலகைகள், மற்றும் சேவைகளை கண்டுபிடிக்கும்",
        "Description[uk]": "Знайти програми, панелі керування та служби",
        "Description[vi]": "Tìm ứng dụng, bảng điều khiển và dịch vụ",
        "Description[x-test]": "xxFind applications, control panels and servicesxx",
        "Description[zh_CN]": "查找应用程序、控制面板和服务",
        "EnabledByDefault": true,
        "Icon": "applications-other",
        "Id": "services",
        "License": "LGPL",
        "Name": "Applications",
        "Name[af]": "Programme",
        "Name[ar]": "التطبيقات",
        "Name[as]": "অনুপ্ৰয়োগ",
        "Name[ast]": "Aplicaciones",
        "Name[az]": "Tətbiqlər",
        "Name[be@latin]": "Aplikacyi",
        "Name[be]": "Праграмы",
        "Name[bg]": "Програми",
        "Name[bn]": "অ্যাপলিকেশন",
        "Name[bn_IN]": "অ্যাপ্লিকেশন তালিকা",
        "Name[br]": "Arloadoù",
        "Name[bs]": "Programi",
        "Name[ca@valencia]": "Aplicacions",
        "Name[ca]": "Aplicacions",
        "Name[cs]": "Aplikace",
        "Name[csb]": "Programë",
        "Name[cy]": "Cymhwysiadau",
        "Name[da]": "Programmer",
        "Name[de]": "Anwendungen",
        "Name[el]": "Εφαρμογές",
        "Name[en_GB]": "Applications",
        "Name[eo]": "Aplikaĵoj",
        "Name[es]": "Aplicaciones",
        "Name[et]": "Rakendused",
        "Name[eu]": "Aplikazioak",
        "Name[fa]": "برنامه‌ها",
        "Name[fi]": "Sovellukset",
        "Name[fr]": "Applications",
        "Name[fy]": "Programma's",
        "Name[ga]": "Feidhmchláir",
        "Name[gl]": "Aplicacións",
        "Name[gu]": "કાર્યક્રમો",
        "Name[he]": "תוכניות",
        "Name[hi]": "अनुप्रयोग",
        "Name[hne]": "अनुपरयोग",
        "Name[hr]": "Aplikacije",
        "Name[hsb]": "Aplikacija",
        "Name[hu]": "Alkalmazások",
        "Name[ia]": "Applicationes",
        "Name[id]": "Aplikasi",
        "Name[is]": "Forrit",
        "Name[it]": "Applicazioni",
        "Name[ja]": "アプリケーション",
        "Name[ka]": "პროგრამები",
        "Name[kk]": "Қолданбалар",
        "Name[km]": "កម្មវិធី",
        "Name[kn]": "ಅನ್ವಯಗಳು",
        "Name[ko]": "프로그램",
        "Name[ku]": "Sepan",
        "Name[lt]": "Programos",
        "Name[lv]": "Programmas",
        "Name[mai]": "अनुप्रयोग",
        "Name[mk]": "Апликации",
        "Name[ml]": "പ്രയോഗങ്ങള്‍",
        "Name[mr]": "अनुप्रयोग",
        "Name[ms]": "Aplikasi",
        "Name[nb]": "Programmer",
        "Name[nds]": "Programmen",
        "Name[ne]": "अनुप्रयोग",
        "Name[nl]": "Programma's",
        "Name[nn]": "Program",
        "Name[oc]": "Aplicacions",
        "Name[or]": "ପ୍ରୟୋଗଗୁଡ଼ିକ",
        "Name[pa]": "ਐਪਲੀਕੇਸ਼ਨ",
        "Name[pl]": "Programy",
        "Name[pt]": "Aplicações",
        "Name[pt_BR]": "Aplicativos",
        "Name[ro]": "Aplicații",
        "Name[ru]": "Приложения",
        "Name[se]": "Prográmmat",
        "Name[si]": "යෙදුම්",
        "Name[sk]": "Aplikácie",
        "Name[sl]": "Programi",
        "Name[sr@ijekavian]": "програми",
        "Name[sr@ijekavianlatin]": "programi",
        "Name[sr@latin]": "programi",
        "Name[sr]": "програми",
        "Name[sv]": "Program",
        "Name[ta]": "செயலிகள்",
        "Name[te]": "కార్యక్రమాలు",
        "Name[tg]": "Барномаҳо",
        "Name[th]": "โปรแกรมต่าง ๆ",
        "Name[tr]": "Uygulamalar",
        "Name[ug]": "پروگراممىلار",
        "Name[uk]": "Програми",
        "Name[uz@cyrillic]": "Дастурлар",
        "Name[uz]": "Dasturlar",
        "Name[vi]": "Ứng dụng",
        "Name[wa]": "Programes",
        "Name[x-test]": "xxApplicationsxx",
        "Name[zh_CN]": "应用程序",
        "Name[zh_TW]": "應用程式"
    },
    "X-Plasma-Runner-Unique-Results": true
}
