{
    "KPlugin": {
        "Description": "Sends updated location data to the compositor",
        "Description[ar]": "يرسل بيانات الموقع المحدثة إلى المؤلف",
        "Description[az]": "Yenilənmiş məlumatları Plasma pəncərə menecerinə göndərir",
        "Description[ca]": "Envia les dades actualitzades de la ubicació al compositor",
        "Description[en_GB]": "Sends updated location data to the compositor",
        "Description[es]": "Envía datos de posicionamiento actualizados al compositor",
        "Description[fr]": "Envoie des données de localisation actualisées au compositeur",
        "Description[hu]": "Frissített lokációs adatok küldése a kompozitornak",
        "Description[ia]": "Invia datos de location actualisate al compositor",
        "Description[it]": "Invia i dati di posizione aggiornati al compositore",
        "Description[lt]": "Siunčia atnaujintus vietos duomenis į kompozitorių",
        "Description[nl]": "Verstuurt bijgewerkte locatiegegevens naar de compositeur",
        "Description[nn]": "Sender oppdatert staddata til samansetjaren",
        "Description[pl]": "Wysyła uaktualnione dane położenia do kompozytora",
        "Description[pt_BR]": "Envia dados de localização atualizados para o computador.",
        "Description[ru]": "Передаёт диспетчеру окон Plasma информацию об изменении местоположения",
        "Description[sl]": "Pošilja posodobljene podatke o legi v upravljalnik skladnje",
        "Description[sv]": "Skickar uppdaterad platsinformation till sammansättare",
        "Description[uk]": "Надсилає оновлені дані щодо розташування на комп'ютер",
        "Description[vi]": "Gửi dữ liệu vị trí đã cập nhật đến trình kết hợp",
        "Description[x-test]": "xxSends updated location data to the compositorxx",
        "Description[zh_CN]": "发送已更新的位置数据到显示特效混合器",
        "Name": "ColorCorrect Geolocation Updater",
        "Name[ar]": "محدث الموقع لتصحيح الألوان",
        "Name[az]": "Rənglərin korreksiyası üçün coğrafi məkan yenilənməsi",
        "Name[ca@valencia]": "Actualitzador de la geolocalització de ColorCorrect",
        "Name[ca]": "Actualitzador de la geolocalització del ColorCorrect",
        "Name[da]": "Opdatering af geolokalisering til ColorCorrect Geolocation",
        "Name[de]": "Geolokalisierung-Aktualisierung zur Farbkorrektur",
        "Name[en_GB]": "ColourCorrect Geolocation Updater",
        "Name[es]": "Actualizador de geolocalización ColorCorrect",
        "Name[et]": "ColorCorrecti geolokatsiooni uuendaja",
        "Name[eu]": "ColorCorrect geokokapen eguneratzailea",
        "Name[fi]": "ColorCorrect Geolocation -päivittäjä",
        "Name[fr]": "Actualisation de géolocalisation ColorCorrect",
        "Name[gl]": "Actualizador de geolocalización de ColorCorrect",
        "Name[hi]": "जियोलोकेशन अपडेटर का रंग सुधारें",
        "Name[hu]": "ColorCorrect geolokáció-frissítő",
        "Name[ia]": "Actualisator de ColorCorrect Geolocation",
        "Name[id]": "Pembaru Geolokasi ColorCorrect",
        "Name[it]": "ColorCorrect Geolocation Updater",
        "Name[ko]": "ColorCorrect 위치 업데이터",
        "Name[lt]": "ColorCorrect geografinės vietos nustatymo atnaujinimo įrankis",
        "Name[ml]": "കളർകറക്റ്റ് ജിയോലൊക്കേഷൻ അപ്ഡേറ്റർ",
        "Name[nl]": "Bijwerker van kleurgecorrigeerde geo-locatie",
        "Name[nn]": "ColorCorrect geolokasjonsoppdaterar",
        "Name[pa]": "ਰੰਗ-ਸੋਧ ਭੂਗੋਲਿਕ ਟਿਕਾਣਾ ਅੱਪਡੇਟਰ",
        "Name[pl]": "Uaktualnianie położenia geograficznego dla poprawnej barwy",
        "Name[pt]": "Actualização da Geo-Localização da Correcção de Cores",
        "Name[pt_BR]": "Atualizador de geolocalização do ColorCorrect",
        "Name[ro]": "Actualizator de geolocalizare ColorCorrect",
        "Name[ru]": "Обновление местоположения для коррекции цвета",
        "Name[sk]": "Aktualizátor geolokácie ColorCorrect",
        "Name[sl]": "Posodobilnik popravkov barve glede na zemljepisno lego",
        "Name[sr@ijekavian]": "Ажурирање географске локације за поправку боје",
        "Name[sr@ijekavianlatin]": "Ažuriranje geografske lokacije za popravku boje",
        "Name[sr@latin]": "Ažuriranje geografske lokacije za popravku boje",
        "Name[sr]": "Ажурирање географске локације за поправку боје",
        "Name[sv]": "Färgriktig uppdatering av geografisk plats",
        "Name[tr]": "ColorCorrect Coğrafi Konum Güncelleyici",
        "Name[uk]": "Засіб оновлення географічного розташування для ColorCorrect",
        "Name[vi]": "Trình cập nhật định vị địa lí ColorCorrect",
        "Name[x-test]": "xxColorCorrect Geolocation Updaterxx",
        "Name[zh_CN]": "ColorCorrect 地理位置更新器",
        "Name[zh_TW]": "ColorCorrect 位置更新器"
    },
    "X-KDE-FactoryName": "colorcorrectlocationupdater",
    "X-KDE-Kded-autoload": true
}
